<?xml version="1.0" encoding="utf-8"?>
<!DOCTYPE svg PUBLIC "-//W3C//DTD SVG 1.1//EN" "http://www.w3.org/Graphics/SVG/1.1/DTD/svg11.dtd">
<svg version="1.1" xmlns="http://www.w3.org/2000/svg" xmlns:xlink="http://www.w3.org/1999/xlink" x="0px" y="0px"
	 viewBox="0 0 49.9 49.899" enable-background="new 0 0 49.9 49.899" xml:space="preserve">
<g id="Layer_2">
	<rect x="0" y="0" fill="#ffffff" fill-opacity="0.0" width="49.9" height="49.899"/>
</g>
<g id="Layer_1">
	<g>
		<path fill="#FFFFFF" d="M30.384,37.958V37.57l0.817-0.816l-1.358-1.55c-1.85,0.949-3.94,1.493-6.156,1.493
			c-7.481,0-13.566-6.085-13.566-13.564c0-7.481,6.085-13.566,13.566-13.566c7.48,0,13.566,6.085,13.566,13.566
			c0,3.703-1.495,7.062-3.912,9.515l1.087,1.5l0.74-0.739h0.737l6.801,9.058C47.151,37.96,49.9,31.777,49.9,24.95
			C49.9,11.171,38.73,0,24.951,0S0,11.171,0,24.95c0,13.778,11.171,24.949,24.951,24.949c4.498,0,8.707-1.208,12.351-3.291
			C34.225,42.782,30.384,37.958,30.384,37.958z"/>
		<path fill="#FFFFFF" d="M14.913,23.133c0,4.838,3.937,8.773,8.775,8.773c4.839,0,8.775-3.935,8.775-8.773
			c0-4.839-3.936-8.776-8.775-8.776C18.849,14.357,14.913,18.293,14.913,23.133z"/>
	</g>
</g>
</svg>
